PRELOADER 0x0
MBR 0xc00000
EBR1 0xc80000
PRO_INFO 0xd00000
NVRAM 0x1000000
PROTECT_F 0x1500000
PROTECT_S 0x1f00000
SECCFG 0x2900000
UBOOT 0x2920000
BOOTIMG 0x2980000
RECOVERY 0x3980000
SEC_RO 0x4980000
MISC 0x4f80000
LOGO 0x5000000
EXPDB 0x5300000
ANDROID 0x5d00000
CACHE 0x37d00000
USRDATA 0x3fb00000
